// Jest Snapshot v1, https://goo.gl/fbAQLP

exports[`Advantage should render correctly 1`] = `
<div
  className="advantage"
>
  <div
    className="heading"
  >
    <h2
      className="heading"
    >
      
    </h2>
  </div>
  <div
    className="numWrapper"
  >
    <span
      className="num"
    >
      № 
      0
    </span>
  </div>
  <div
    className="text"
  >
    <p
      className="paragraph"
    >
      
    </p>
  </div>
</div>
`;
