// Jest Snapshot v1, https://goo.gl/fbAQLP

exports[`Discover should render correctly 1`] = `
<section
  className="discover"
>
  <div
    className="heading"
  >
    <h2
      className="heading"
    >
      Седона - небольшой городок в Аризоне, заслуживающий большего!
    </h2>
  </div>
  <div
    className="paragraph"
  >
    <p
      className="paragraph"
    >
      Рассмотрим 5 причин, по которым Седона круче чем Гранд Каньон!
    </p>
  </div>
</section>
`;
